<?xml version="1.0" encoding="UTF-8"?>
<session version="1.0">
<refactoring comment="Delete resource &apos;demo&apos;" deleteContents="true" description="Delete resource &apos;demo&apos;" element1="/demo" flags="7" id="org.eclipse.ltk.core.refactoring.delete.resources" resources="1" stamp="1697772200096"/>
</session>